Info: Starting: Create simulation model
Info: qsys-generate C:\riscv\fpga-experiments\09_adc\adc\adc.qsys --simulation=VERILOG --allow-mixed-language-simulation --output-directory=C:\riscv\fpga-experiments\09_adc\adc\adc\simulation --family="MAX 10" --part=10M04SAE144C8G
Progress: Loading adc/adc.qsys
Progress: Reading input file
Progress: Adding modular_adc_0 [altera_modular_adc 18.1]
Progress: Parameterizing module modular_adc_0
Progress: Building connections
Progress: Parameterizing connections
Progress: Validating
Progress: Done reading input file
Info: adc: Generating adc "adc" for SIM_VERILOG
Info: modular_adc_0: "adc" instantiated altera_modular_adc "modular_adc_0"
Info: control_internal: "modular_adc_0" instantiated altera_modular_adc_control "control_internal"
Info: adc: Done "adc" with 3 modules, 8 files
Info: qsys-generate succeeded.
Info: Finished: Create simulation model
Info: Starting: Create Modelsim Project.
Info: sim-script-gen --spd=C:\riscv\fpga-experiments\09_adc\adc\adc\adc.spd --output-directory=C:/riscv/fpga-experiments/09_adc/adc/adc/simulation/ --use-relative-paths=true
Info: Doing: ip-make-simscript --spd=C:\riscv\fpga-experiments\09_adc\adc\adc\adc.spd --output-directory=C:/riscv/fpga-experiments/09_adc/adc/adc/simulation/ --use-relative-paths=true
Info: Generating the following file(s) for MODELSIM simulator in C:/riscv/fpga-experiments/09_adc/adc/adc/simulation/ directory:
Info: 	mentor/msim_setup.tcl
Info: Generating the following file(s) for VCS simulator in C:/riscv/fpga-experiments/09_adc/adc/adc/simulation/ directory:
Info: 	synopsys/vcs/vcs_setup.sh
Info: Generating the following file(s) for VCSMX simulator in C:/riscv/fpga-experiments/09_adc/adc/adc/simulation/ directory:
Info: 	synopsys/vcsmx/synopsys_sim.setup
Info: 	synopsys/vcsmx/vcsmx_setup.sh
Info: Generating the following file(s) for NCSIM simulator in C:/riscv/fpga-experiments/09_adc/adc/adc/simulation/ directory:
Info: 	cadence/cds.lib
Info: 	cadence/hdl.var
Info: 	cadence/ncsim_setup.sh
Info: 	2 .cds.lib files in cadence/cds_libs/ directory
Info: Generating the following file(s) for RIVIERA simulator in C:/riscv/fpga-experiments/09_adc/adc/adc/simulation/ directory:
Info: 	aldec/rivierapro_setup.tcl
Info: For information on how to simulate your IP, see the explanatory comments in the simulator-specific subdirectories under C:/riscv/fpga-experiments/09_adc/adc/adc/simulation/.
Info: Regenerate these scripts whenever you make any change to any Quartus-generated IP in your project.
Info: Finished: Create Modelsim Project.
Info: Starting: Create block symbol file (.bsf)
Info: qsys-generate C:\riscv\fpga-experiments\09_adc\adc\adc.qsys --block-symbol-file --output-directory=C:\riscv\fpga-experiments\09_adc\adc\adc --family="MAX 10" --part=10M04SAE144C8G
Progress: Loading adc/adc.qsys
Progress: Reading input file
Progress: Adding modular_adc_0 [altera_modular_adc 18.1]
Progress: Parameterizing module modular_adc_0
Progress: Building connections
Progress: Parameterizing connections
Progress: Validating
Progress: Done reading input file
Info: qsys-generate succeeded.
Info: Finished: Create block symbol file (.bsf)
Info: 
Info: Starting: Create HDL design files for synthesis
Info: qsys-generate C:\riscv\fpga-experiments\09_adc\adc\adc.qsys --synthesis=VERILOG --output-directory=C:\riscv\fpga-experiments\09_adc\adc\adc\synthesis --family="MAX 10" --part=10M04SAE144C8G
Progress: Loading adc/adc.qsys
Progress: Reading input file
Progress: Adding modular_adc_0 [altera_modular_adc 18.1]
Progress: Parameterizing module modular_adc_0
Progress: Building connections
Progress: Parameterizing connections
Progress: Validating
Progress: Done reading input file
Info: adc: Generating adc "adc" for QUARTUS_SYNTH
Info: modular_adc_0: "adc" instantiated altera_modular_adc "modular_adc_0"
Info: control_internal: "modular_adc_0" instantiated altera_modular_adc_control "control_internal"
Info: adc: Done "adc" with 3 modules, 9 files
Info: qsys-generate succeeded.
Info: Finished: Create HDL design files for synthesis
